share-of-critical,dummy,marked_for_inspection,path,name,structure_graph_tip,structure_graph_shelter_orphans,structure_graph_only_tip_fringes,structure_graph_only_tip_extreme_layer,structure_graph_number_of_nodes,structure_graph_number_of_steps,structure_graph_random_attribute_generator,structure_graph_number_of_edges,structure_graph_fuzzing_distance_from,structure_graph_fuzzing_distance_to,structure_graph_random_attribute_generator,structure_graph_at_least_strongly_connected,structure_graph_at_least_weakly_connected,structure_graph_acyclic,structure_graph_simple,structure_graph_anti_reflexive,cluster_tip,cluster_shelter_orphans,cluster_only_tip_fringes,cluster_only_tip_extreme_layer,cluster_number_of_nodes,cluster_number_of_steps,cluster_random_attribute_generator,cluster_number_of_edges,cluster_fuzzing_distance_from,cluster_fuzzing_distance_to,cluster_random_attribute_generator,cluster_at_least_strongly_connected,cluster_at_least_weakly_connected,cluster_acyclic,cluster_simple,cluster_anti_reflexive,default_edge_attributes,default_node_attributes,structure_graph_edge_tipping_random_attribute_generator,structure_graph_node_tipping_random_attribute_generator,cluster_edge_tipping_random_attribute_generator,cluster_node_tipping_random_attribute_generator,number_of_epochs,share_of_critical,critical_selection_policy,example_number_of_edges,example_number_of_nodes,example_avg_incid_per_node,example_number_of_critical_edges,example_share_of_critical,example_number_of_epochs,example_path_length_lower_bound,maintenance_problem_ip_time_in_sec,maintenance_problem_ip_number_of_bnb_runs,maintenance_problem_ip_number_of_reopt_runs,maintenance_problem_ip_number_of_nodes_explored,maintenance_problem_ip_max_depth,maintenance_problem_ip_dual_bound,maintenance_problem_ip_primal_bound,maintenance_problem_ip_gap,maintenance_problem_ip_number_of_primal_sols,maintenance_problem_benders_time_in_sec,maintenance_problem_benders_number_of_bnb_runs,maintenance_problem_benders_number_of_reopt_runs,maintenance_problem_benders_number_of_nodes_explored,maintenance_problem_benders_max_depth,maintenance_problem_benders_dual_bound,maintenance_problem_benders_primal_bound,maintenance_problem_benders_gap,maintenance_problem_benders_number_of_primal_sols
0.2,0,0,raster_pos:share-of-critical=0.2_dummy=0,instance.test_data,0,0,0,0,200,1,random_attribute_generator {  } ,1250,0,0,random_attribute_generator { Upper =  { fix Integral 1 100 }  } ,0,0,1,1,1,1,1,1,0,1,1,random_attribute_generator {  } ,0,0,0,random_attribute_generator { Upper =  { fix Integral 1 100 }  } ,0,0,1,1,1,Attributes { Edgepotential = Attribute { min Continuous 0 } Selected = Attribute { fix Continuous 0 } Upper = Attribute { fix Continuous 1 } Flow = Attribute { max Continuous 0 } } ,Attributes { Nodepotential = Attribute { min Continuous 0 } } ,random_attribute_generator { Upper =  { fix Integral 1 100 }  } ,random_attribute_generator {  } ,random_attribute_generator { Upper =  { fix Integral 1 100 }  } ,random_attribute_generator {  } ,3,0.2,everywhere,1250,200,12.5,250,0.2,3,2,1.04208,0.5,0,19,4.5,350,350,0,3,0.333545,0.5,0,8,3,350,350,0,4
0.3,0,0,raster_pos:share-of-critical=0.3_dummy=0,instance.test_data,0,0,0,0,133,1,random_attribute_generator {  } ,833,0,0,random_attribute_generator { Upper =  { fix Integral 1 100 }  } ,0,0,1,1,1,1,1,1,0,1,1,random_attribute_generator {  } ,0,0,0,random_attribute_generator { Upper =  { fix Integral 1 100 }  } ,0,0,1,1,1,Attributes { Edgepotential = Attribute { min Continuous 0 } Selected = Attribute { fix Continuous 0 } Upper = Attribute { fix Continuous 1 } Flow = Attribute { max Continuous 0 } } ,Attributes { Nodepotential = Attribute { min Continuous 0 } } ,random_attribute_generator { Upper =  { fix Integral 1 100 }  } ,random_attribute_generator {  } ,random_attribute_generator { Upper =  { fix Integral 1 100 }  } ,random_attribute_generator {  } ,3,0.3,everywhere,833,133,12.5263,249,0.29892,3,3,0.993347,0.5,0,116,11,366,366,0,3.5,0.253328,0.5,0,18,6,366,366,0,6.5
0.4,0,0,raster_pos:share-of-critical=0.4_dummy=0,instance.test_data,0,0,0,0,100,1,random_attribute_generator {  } ,625,0,0,random_attribute_generator { Upper =  { fix Integral 1 100 }  } ,0,0,1,1,1,1,1,1,0,1,1,random_attribute_generator {  } ,0,0,0,random_attribute_generator { Upper =  { fix Integral 1 100 }  } ,0,0,1,1,1,Attributes { Edgepotential = Attribute { min Continuous 0 } Selected = Attribute { fix Continuous 0 } Upper = Attribute { fix Continuous 1 } Flow = Attribute { max Continuous 0 } } ,Attributes { Nodepotential = Attribute { min Continuous 0 } } ,random_attribute_generator { Upper =  { fix Integral 1 100 }  } ,random_attribute_generator {  } ,random_attribute_generator { Upper =  { fix Integral 1 100 }  } ,random_attribute_generator {  } ,3,0.4,everywhere,625,100,12.5,250,0.4,3,2,0.979263,0.5,0,88,11.5,300,300,0,4,0.250884,0.5,0,30,5.5,300,300,0,7.5
0.5,0,0,raster_pos:share-of-critical=0.5_dummy=0,instance.test_data,0,0,0,0,80,1,random_attribute_generator {  } ,500,0,0,random_attribute_generator { Upper =  { fix Integral 1 100 }  } ,0,0,1,1,1,1,1,1,0,1,1,random_attribute_generator {  } ,0,0,0,random_attribute_generator { Upper =  { fix Integral 1 100 }  } ,0,0,1,1,1,Attributes { Edgepotential = Attribute { min Continuous 0 } Selected = Attribute { fix Continuous 0 } Upper = Attribute { fix Continuous 1 } Flow = Attribute { max Continuous 0 } } ,Attributes { Nodepotential = Attribute { min Continuous 0 } } ,random_attribute_generator { Upper =  { fix Integral 1 100 }  } ,random_attribute_generator {  } ,random_attribute_generator { Upper =  { fix Integral 1 100 }  } ,random_attribute_generator {  } ,3,0.5,everywhere,500,80,12.5,250,0.5,3,2,1.21735,0.5,0,69,11,354,354,0,5.5,0.255711,0.5,0,39.5,8.5,354,354,0,8.5
0.6,0,0,raster_pos:share-of-critical=0.6_dummy=0,instance.test_data,0,0,0,0,66,1,random_attribute_generator {  } ,417,0,0,random_attribute_generator { Upper =  { fix Integral 1 100 }  } ,0,0,1,1,1,1,1,1,0,1,1,random_attribute_generator {  } ,0,0,0,random_attribute_generator { Upper =  { fix Integral 1 100 }  } ,0,0,1,1,1,Attributes { Edgepotential = Attribute { min Continuous 0 } Selected = Attribute { fix Continuous 0 } Upper = Attribute { fix Continuous 1 } Flow = Attribute { max Continuous 0 } } ,Attributes { Nodepotential = Attribute { min Continuous 0 } } ,random_attribute_generator { Upper =  { fix Integral 1 100 }  } ,random_attribute_generator {  } ,random_attribute_generator { Upper =  { fix Integral 1 100 }  } ,random_attribute_generator {  } ,3,0.6,everywhere,417,66,12.6364,250,0.59952,3,1,1.01592,0.5,0,185,13,278,278,0,5.5,0.167475,0.5,0,18,7,278,278,0,7.5
0.7,0,0,raster_pos:share-of-critical=0.7_dummy=0,instance.test_data,0,0,0,0,57,1,random_attribute_generator {  } ,357,0,0,random_attribute_generator { Upper =  { fix Integral 1 100 }  } ,0,0,1,1,1,1,1,1,0,1,1,random_attribute_generator {  } ,0,0,0,random_attribute_generator { Upper =  { fix Integral 1 100 }  } ,0,0,1,1,1,Attributes { Edgepotential = Attribute { min Continuous 0 } Selected = Attribute { fix Continuous 0 } Upper = Attribute { fix Continuous 1 } Flow = Attribute { max Continuous 0 } } ,Attributes { Nodepotential = Attribute { min Continuous 0 } } ,random_attribute_generator { Upper =  { fix Integral 1 100 }  } ,random_attribute_generator {  } ,random_attribute_generator { Upper =  { fix Integral 1 100 }  } ,random_attribute_generator {  } ,3,0.7,everywhere,357,57,12.5263,249,0.697479,3,2,1.21837,0.5,0,132,16,284.5,284.5,0,5,0.20937,0.5,0,36.5,7,284.5,284.5,0,9.5
0.8,0,0,raster_pos:share-of-critical=0.8_dummy=0,instance.test_data,0,0,0,0,50,1,random_attribute_generator {  } ,313,0,0,random_attribute_generator { Upper =  { fix Integral 1 100 }  } ,0,0,1,1,1,1,1,1,0,1,1,random_attribute_generator {  } ,0,0,0,random_attribute_generator { Upper =  { fix Integral 1 100 }  } ,0,0,1,1,1,Attributes { Edgepotential = Attribute { min Continuous 0 } Selected = Attribute { fix Continuous 0 } Upper = Attribute { fix Continuous 1 } Flow = Attribute { max Continuous 0 } } ,Attributes { Nodepotential = Attribute { min Continuous 0 } } ,random_attribute_generator { Upper =  { fix Integral 1 100 }  } ,random_attribute_generator {  } ,random_attribute_generator { Upper =  { fix Integral 1 100 }  } ,random_attribute_generator {  } ,3,0.8,everywhere,313,50,12.52,250,0.798722,3,2,1.9937,0.5,0,218.5,18,305,305,0,7,0.4733,0.5,0,162,15.5,305,305,0,12
0.9,0,0,raster_pos:share-of-critical=0.9_dummy=0,instance.test_data,0,0,0,0,44,1,random_attribute_generator {  } ,278,0,0,random_attribute_generator { Upper =  { fix Integral 1 100 }  } ,0,0,1,1,1,1,1,1,0,1,1,random_attribute_generator {  } ,0,0,0,random_attribute_generator { Upper =  { fix Integral 1 100 }  } ,0,0,1,1,1,Attributes { Edgepotential = Attribute { min Continuous 0 } Selected = Attribute { fix Continuous 0 } Upper = Attribute { fix Continuous 1 } Flow = Attribute { max Continuous 0 } } ,Attributes { Nodepotential = Attribute { min Continuous 0 } } ,random_attribute_generator { Upper =  { fix Integral 1 100 }  } ,random_attribute_generator {  } ,random_attribute_generator { Upper =  { fix Integral 1 100 }  } ,random_attribute_generator {  } ,3,0.9,everywhere,278,44,12.6364,250,0.899281,3,2,1.14965,0.5,0,121.5,14,306,306,0,6.5,0.319919,0.5,0,105.5,13,306,306,0,11.5
1,0,0,raster_pos:share-of-critical=1_dummy=0,instance.test_data,0,0,0,0,40,1,random_attribute_generator {  } ,250,0,0,random_attribute_generator { Upper =  { fix Integral 1 100 }  } ,0,0,1,1,1,1,1,1,0,1,1,random_attribute_generator {  } ,0,0,0,random_attribute_generator { Upper =  { fix Integral 1 100 }  } ,0,0,1,1,1,Attributes { Edgepotential = Attribute { min Continuous 0 } Selected = Attribute { fix Continuous 0 } Upper = Attribute { fix Continuous 1 } Flow = Attribute { max Continuous 0 } } ,Attributes { Nodepotential = Attribute { min Continuous 0 } } ,random_attribute_generator { Upper =  { fix Integral 1 100 }  } ,random_attribute_generator {  } ,random_attribute_generator { Upper =  { fix Integral 1 100 }  } ,random_attribute_generator {  } ,3,1,everywhere,250,40,12.5,250,1,3,2,2.47799,0.5,0,344,19.5,255.5,255.5,0,7.5,0.403142,0.5,0,291,14,255.5,255.5,0,12.5
