share-of-critical,connector-capacity,marked_for_inspection,path,name,structure_graph_tip,structure_graph_shelter_orphans,structure_graph_only_tip_fringes,structure_graph_only_tip_extreme_layer,structure_graph_number_of_nodes,structure_graph_number_of_steps,structure_graph_random_attribute_generator,structure_graph_number_of_edges,structure_graph_fuzzing_distance_from,structure_graph_fuzzing_distance_to,structure_graph_random_attribute_generator,structure_graph_at_least_strongly_connected,structure_graph_at_least_weakly_connected,structure_graph_acyclic,structure_graph_simple,structure_graph_anti_reflexive,cluster_tip,cluster_shelter_orphans,cluster_only_tip_fringes,cluster_only_tip_extreme_layer,cluster_number_of_nodes,cluster_number_of_steps,cluster_random_attribute_generator,cluster_number_of_edges,cluster_fuzzing_distance_from,cluster_fuzzing_distance_to,cluster_random_attribute_generator,cluster_at_least_strongly_connected,cluster_at_least_weakly_connected,cluster_acyclic,cluster_simple,cluster_anti_reflexive,default_edge_attributes,default_node_attributes,structure_graph_edge_tipping_random_attribute_generator,structure_graph_node_tipping_random_attribute_generator,cluster_edge_tipping_random_attribute_generator,cluster_node_tipping_random_attribute_generator,number_of_epochs,share_of_critical,critical_selection_policy,example_number_of_edges,example_number_of_nodes,example_avg_incid_per_node,example_number_of_critical_edges,example_share_of_critical,example_number_of_epochs,example_path_length_lower_bound,maintenance_problem_ip_time_in_sec,maintenance_problem_ip_number_of_bnb_runs,maintenance_problem_ip_number_of_reopt_runs,maintenance_problem_ip_number_of_nodes_explored,maintenance_problem_ip_max_depth,maintenance_problem_ip_dual_bound,maintenance_problem_ip_primal_bound,maintenance_problem_ip_gap,maintenance_problem_ip_number_of_primal_sols,maintenance_problem_benders_time_in_sec,maintenance_problem_benders_number_of_bnb_runs,maintenance_problem_benders_number_of_reopt_runs,maintenance_problem_benders_number_of_nodes_explored,maintenance_problem_benders_max_depth,maintenance_problem_benders_dual_bound,maintenance_problem_benders_primal_bound,maintenance_problem_benders_gap,maintenance_problem_benders_number_of_primal_sols
0.2,20,0,raster_pos:share-of-critical=0.2_connector-capacity=20,instance.test_data,0,0,0,0,40,1,random_attribute_generator {  } ,250,0,0,random_attribute_generator { Upper =  { fix Integral 1 100 }  } ,0,0,1,1,1,0,0,0,0,5,1,random_attribute_generator {  } ,26,0,0,random_attribute_generator { Upper =  { fix Integral 1 100 }  } ,0,0,1,0,1,Attributes { Flow = Attribute { max Continuous 0 } Upper = Attribute { fix Continuous 1 } Selected = Attribute { fix Continuous 0 } Edgepotential = Attribute { min Continuous 0 } } ,Attributes { Nodepotential = Attribute { min Continuous 0 } } ,random_attribute_generator { Upper =  { fix Integral 1 20 }  } ,random_attribute_generator {  } ,random_attribute_generator { Upper =  { fix Integral 1 100 }  } ,random_attribute_generator {  } ,3,1,network_connectors,1238,192,12.8958,250,0.201939,3,3,4.36839,0.5,0,590,19,282,282,0,7.5,1.27189,0.5,0,319,19.5,282,282,0,13
0.2,40,0,raster_pos:share-of-critical=0.2_connector-capacity=40,instance.test_data,0,0,0,0,40,1,random_attribute_generator {  } ,250,0,0,random_attribute_generator { Upper =  { fix Integral 1 100 }  } ,0,0,1,1,1,0,0,0,0,5,1,random_attribute_generator {  } ,26,0,0,random_attribute_generator { Upper =  { fix Integral 1 100 }  } ,0,0,1,0,1,Attributes { Flow = Attribute { max Continuous 0 } Upper = Attribute { fix Continuous 1 } Selected = Attribute { fix Continuous 0 } Edgepotential = Attribute { min Continuous 0 } } ,Attributes { Nodepotential = Attribute { min Continuous 0 } } ,random_attribute_generator { Upper =  { fix Integral 1 40 }  } ,random_attribute_generator {  } ,random_attribute_generator { Upper =  { fix Integral 1 100 }  } ,random_attribute_generator {  } ,3,1,network_connectors,1238,192,12.8958,250,0.201939,3,3,2.9518,0.5,0,299,20,243,243,0,8,1.5919,0.5,0,290,15.5,243,243,0,13
0.2,60,0,raster_pos:share-of-critical=0.2_connector-capacity=60,instance.test_data,0,0,0,0,40,1,random_attribute_generator {  } ,250,0,0,random_attribute_generator { Upper =  { fix Integral 1 100 }  } ,0,0,1,1,1,0,0,0,0,5,1,random_attribute_generator {  } ,26,0,0,random_attribute_generator { Upper =  { fix Integral 1 100 }  } ,0,0,1,0,1,Attributes { Flow = Attribute { max Continuous 0 } Upper = Attribute { fix Continuous 1 } Selected = Attribute { fix Continuous 0 } Edgepotential = Attribute { min Continuous 0 } } ,Attributes { Nodepotential = Attribute { min Continuous 0 } } ,random_attribute_generator { Upper =  { fix Integral 1 60 }  } ,random_attribute_generator {  } ,random_attribute_generator { Upper =  { fix Integral 1 100 }  } ,random_attribute_generator {  } ,3,1,network_connectors,1238,192,12.8958,250,0.201939,3,3,3.05169,0.5,0,317,19,271,271,0,6.5,0.902132,0.5,0,192,15,271,271,0,12.5
0.2,80,0,raster_pos:share-of-critical=0.2_connector-capacity=80,instance.test_data,0,0,0,0,40,1,random_attribute_generator {  } ,250,0,0,random_attribute_generator { Upper =  { fix Integral 1 100 }  } ,0,0,1,1,1,0,0,0,0,5,1,random_attribute_generator {  } ,26,0,0,random_attribute_generator { Upper =  { fix Integral 1 100 }  } ,0,0,1,0,1,Attributes { Flow = Attribute { max Continuous 0 } Upper = Attribute { fix Continuous 1 } Selected = Attribute { fix Continuous 0 } Edgepotential = Attribute { min Continuous 0 } } ,Attributes { Nodepotential = Attribute { min Continuous 0 } } ,random_attribute_generator { Upper =  { fix Integral 1 80 }  } ,random_attribute_generator {  } ,random_attribute_generator { Upper =  { fix Integral 1 100 }  } ,random_attribute_generator {  } ,3,1,network_connectors,1238,192,12.8958,250,0.201939,3,3,5.24997,0.5,0,638,25,276,276,0,8.5,1.75171,0.5,0,398,18,276,276,0,11.5
0.2,100,0,raster_pos:share-of-critical=0.2_connector-capacity=100,instance.test_data,0,0,0,0,40,1,random_attribute_generator {  } ,250,0,0,random_attribute_generator { Upper =  { fix Integral 1 100 }  } ,0,0,1,1,1,0,0,0,0,5,1,random_attribute_generator {  } ,26,0,0,random_attribute_generator { Upper =  { fix Integral 1 100 }  } ,0,0,1,0,1,Attributes { Flow = Attribute { max Continuous 0 } Upper = Attribute { fix Continuous 1 } Selected = Attribute { fix Continuous 0 } Edgepotential = Attribute { min Continuous 0 } } ,Attributes { Nodepotential = Attribute { min Continuous 0 } } ,random_attribute_generator { Upper =  { fix Integral 1 100 }  } ,random_attribute_generator {  } ,random_attribute_generator { Upper =  { fix Integral 1 100 }  } ,random_attribute_generator {  } ,3,1,network_connectors,1238,192,12.8958,250,0.201939,3,3,1.86482,0.5,0,163,14,273,273,0,6,0.850537,0.5,0,177,14.5,273,273,0,11.5
0.2,120,0,raster_pos:share-of-critical=0.2_connector-capacity=120,instance.test_data,0,0,0,0,40,1,random_attribute_generator {  } ,250,0,0,random_attribute_generator { Upper =  { fix Integral 1 100 }  } ,0,0,1,1,1,0,0,0,0,5,1,random_attribute_generator {  } ,26,0,0,random_attribute_generator { Upper =  { fix Integral 1 100 }  } ,0,0,1,0,1,Attributes { Flow = Attribute { max Continuous 0 } Upper = Attribute { fix Continuous 1 } Selected = Attribute { fix Continuous 0 } Edgepotential = Attribute { min Continuous 0 } } ,Attributes { Nodepotential = Attribute { min Continuous 0 } } ,random_attribute_generator { Upper =  { fix Integral 1 120 }  } ,random_attribute_generator {  } ,random_attribute_generator { Upper =  { fix Integral 1 100 }  } ,random_attribute_generator {  } ,3,1,network_connectors,1238,192,12.8958,250,0.201939,3,3,4.23982,0.5,0,400,20,295,295,0,8.5,1.42848,0.5,0,259,17,295,295,0,15
0.2,140,0,raster_pos:share-of-critical=0.2_connector-capacity=140,instance.test_data,0,0,0,0,40,1,random_attribute_generator {  } ,250,0,0,random_attribute_generator { Upper =  { fix Integral 1 100 }  } ,0,0,1,1,1,0,0,0,0,5,1,random_attribute_generator {  } ,26,0,0,random_attribute_generator { Upper =  { fix Integral 1 100 }  } ,0,0,1,0,1,Attributes { Flow = Attribute { max Continuous 0 } Upper = Attribute { fix Continuous 1 } Selected = Attribute { fix Continuous 0 } Edgepotential = Attribute { min Continuous 0 } } ,Attributes { Nodepotential = Attribute { min Continuous 0 } } ,random_attribute_generator { Upper =  { fix Integral 1 140 }  } ,random_attribute_generator {  } ,random_attribute_generator { Upper =  { fix Integral 1 100 }  } ,random_attribute_generator {  } ,3,1,network_connectors,1238,192,12.8958,250,0.201939,3,1,8.33681,0.5,0,1038,23,333.5,333.5,0,7.5,2.04955,0.5,0,681,17,333.5,333.5,0,14.5
0.2,160,0,raster_pos:share-of-critical=0.2_connector-capacity=160,instance.test_data,0,0,0,0,40,1,random_attribute_generator {  } ,250,0,0,random_attribute_generator { Upper =  { fix Integral 1 100 }  } ,0,0,1,1,1,0,0,0,0,5,1,random_attribute_generator {  } ,26,0,0,random_attribute_generator { Upper =  { fix Integral 1 100 }  } ,0,0,1,0,1,Attributes { Flow = Attribute { max Continuous 0 } Upper = Attribute { fix Continuous 1 } Selected = Attribute { fix Continuous 0 } Edgepotential = Attribute { min Continuous 0 } } ,Attributes { Nodepotential = Attribute { min Continuous 0 } } ,random_attribute_generator { Upper =  { fix Integral 1 160 }  } ,random_attribute_generator {  } ,random_attribute_generator { Upper =  { fix Integral 1 100 }  } ,random_attribute_generator {  } ,3,1,network_connectors,1238,192,12.8958,250,0.201939,3,3,3.8985,0.5,0,540,24.5,272,272,0,8.5,1.15064,0.5,0,397,15.5,272,272,0,12.5
0.2,180,0,raster_pos:share-of-critical=0.2_connector-capacity=180,instance.test_data,0,0,0,0,40,1,random_attribute_generator {  } ,250,0,0,random_attribute_generator { Upper =  { fix Integral 1 100 }  } ,0,0,1,1,1,0,0,0,0,5,1,random_attribute_generator {  } ,26,0,0,random_attribute_generator { Upper =  { fix Integral 1 100 }  } ,0,0,1,0,1,Attributes { Flow = Attribute { max Continuous 0 } Upper = Attribute { fix Continuous 1 } Selected = Attribute { fix Continuous 0 } Edgepotential = Attribute { min Continuous 0 } } ,Attributes { Nodepotential = Attribute { min Continuous 0 } } ,random_attribute_generator { Upper =  { fix Integral 1 180 }  } ,random_attribute_generator {  } ,random_attribute_generator { Upper =  { fix Integral 1 100 }  } ,random_attribute_generator {  } ,3,1,network_connectors,1238,192,12.8958,250,0.201939,3,1,4.75446,0.5,0,507,21,263,263,0,8,1.04776,0.5,0,225,20,263,263,0,13
0.2,200,0,raster_pos:share-of-critical=0.2_connector-capacity=200,instance.test_data,0,0,0,0,40,1,random_attribute_generator {  } ,250,0,0,random_attribute_generator { Upper =  { fix Integral 1 100 }  } ,0,0,1,1,1,0,0,0,0,5,1,random_attribute_generator {  } ,26,0,0,random_attribute_generator { Upper =  { fix Integral 1 100 }  } ,0,0,1,0,1,Attributes { Flow = Attribute { max Continuous 0 } Upper = Attribute { fix Continuous 1 } Selected = Attribute { fix Continuous 0 } Edgepotential = Attribute { min Continuous 0 } } ,Attributes { Nodepotential = Attribute { min Continuous 0 } } ,random_attribute_generator { Upper =  { fix Integral 1 200 }  } ,random_attribute_generator {  } ,random_attribute_generator { Upper =  { fix Integral 1 100 }  } ,random_attribute_generator {  } ,3,1,network_connectors,1238,192,12.8958,250,0.201939,3,3,4.9565,0.5,0,399,20,304,304,0,7.5,1.67916,0.5,0,401,17.5,304,304,0,14
0.3,20,0,raster_pos:share-of-critical=0.3_connector-capacity=20,instance.test_data,0,0,0,0,40,1,random_attribute_generator {  } ,250,0,0,random_attribute_generator { Upper =  { fix Integral 1 100 }  } ,0,0,1,1,1,0,0,0,0,3,1,random_attribute_generator {  } ,15,0,0,random_attribute_generator { Upper =  { fix Integral 1 100 }  } ,0,0,1,0,1,Attributes { Flow = Attribute { max Continuous 0 } Upper = Attribute { fix Continuous 1 } Selected = Attribute { fix Continuous 0 } Edgepotential = Attribute { min Continuous 0 } } ,Attributes { Nodepotential = Attribute { min Continuous 0 } } ,random_attribute_generator { Upper =  { fix Integral 1 20 }  } ,random_attribute_generator {  } ,random_attribute_generator { Upper =  { fix Integral 1 100 }  } ,random_attribute_generator {  } ,3,1,network_connectors,820,116,14.1379,250,0.304878,3,3,4.05919,0.5,0,549,21,311,311,0,8.5,1.13765,0.5,0,372,17.5,311,311,0,15
0.3,40,0,raster_pos:share-of-critical=0.3_connector-capacity=40,instance.test_data,0,0,0,0,40,1,random_attribute_generator {  } ,250,0,0,random_attribute_generator { Upper =  { fix Integral 1 100 }  } ,0,0,1,1,1,0,0,0,0,3,1,random_attribute_generator {  } ,15,0,0,random_attribute_generator { Upper =  { fix Integral 1 100 }  } ,0,0,1,0,1,Attributes { Flow = Attribute { max Continuous 0 } Upper = Attribute { fix Continuous 1 } Selected = Attribute { fix Continuous 0 } Edgepotential = Attribute { min Continuous 0 } } ,Attributes { Nodepotential = Attribute { min Continuous 0 } } ,random_attribute_generator { Upper =  { fix Integral 1 40 }  } ,random_attribute_generator {  } ,random_attribute_generator { Upper =  { fix Integral 1 100 }  } ,random_attribute_generator {  } ,3,1,network_connectors,820,116,14.1379,250,0.304878,3,5,3.32905,0.5,0,474,23,271,271,0,8,0.845891,0.5,0,201,16.5,271,271,0,12
0.3,60,0,raster_pos:share-of-critical=0.3_connector-capacity=60,instance.test_data,0,0,0,0,40,1,random_attribute_generator {  } ,250,0,0,random_attribute_generator { Upper =  { fix Integral 1 100 }  } ,0,0,1,1,1,0,0,0,0,3,1,random_attribute_generator {  } ,15,0,0,random_attribute_generator { Upper =  { fix Integral 1 100 }  } ,0,0,1,0,1,Attributes { Flow = Attribute { max Continuous 0 } Upper = Attribute { fix Continuous 1 } Selected = Attribute { fix Continuous 0 } Edgepotential = Attribute { min Continuous 0 } } ,Attributes { Nodepotential = Attribute { min Continuous 0 } } ,random_attribute_generator { Upper =  { fix Integral 1 60 }  } ,random_attribute_generator {  } ,random_attribute_generator { Upper =  { fix Integral 1 100 }  } ,random_attribute_generator {  } ,3,1,network_connectors,820,116,14.1379,250,0.304878,3,1,6.73422,0.5,0,1415,25,323,323,0,9.5,1.24958,0.5,0,507,20,323,323,0,14
0.3,80,0,raster_pos:share-of-critical=0.3_connector-capacity=80,instance.test_data,0,0,0,0,40,1,random_attribute_generator {  } ,250,0,0,random_attribute_generator { Upper =  { fix Integral 1 100 }  } ,0,0,1,1,1,0,0,0,0,3,1,random_attribute_generator {  } ,15,0,0,random_attribute_generator { Upper =  { fix Integral 1 100 }  } ,0,0,1,0,1,Attributes { Flow = Attribute { max Continuous 0 } Upper = Attribute { fix Continuous 1 } Selected = Attribute { fix Continuous 0 } Edgepotential = Attribute { min Continuous 0 } } ,Attributes { Nodepotential = Attribute { min Continuous 0 } } ,random_attribute_generator { Upper =  { fix Integral 1 80 }  } ,random_attribute_generator {  } ,random_attribute_generator { Upper =  { fix Integral 1 100 }  } ,random_attribute_generator {  } ,3,1,network_connectors,820,116,14.1379,250,0.304878,3,3,4.07254,0.5,0,464,21,312,312,0,8.5,1.5791,0.5,0,327,21,312,312,0,17.5
0.3,100,0,raster_pos:share-of-critical=0.3_connector-capacity=100,instance.test_data,0,0,0,0,40,1,random_attribute_generator {  } ,250,0,0,random_attribute_generator { Upper =  { fix Integral 1 100 }  } ,0,0,1,1,1,0,0,0,0,3,1,random_attribute_generator {  } ,15,0,0,random_attribute_generator { Upper =  { fix Integral 1 100 }  } ,0,0,1,0,1,Attributes { Flow = Attribute { max Continuous 0 } Upper = Attribute { fix Continuous 1 } Selected = Attribute { fix Continuous 0 } Edgepotential = Attribute { min Continuous 0 } } ,Attributes { Nodepotential = Attribute { min Continuous 0 } } ,random_attribute_generator { Upper =  { fix Integral 1 100 }  } ,random_attribute_generator {  } ,random_attribute_generator { Upper =  { fix Integral 1 100 }  } ,random_attribute_generator {  } ,3,1,network_connectors,820,116,14.1379,250,0.304878,3,1,1.70503,0.5,0,204,17,261,261,0,8.5,0.697218,0.5,0,170,13.5,261,261,0,12
0.3,120,0,raster_pos:share-of-critical=0.3_connector-capacity=120,instance.test_data,0,0,0,0,40,1,random_attribute_generator {  } ,250,0,0,random_attribute_generator { Upper =  { fix Integral 1 100 }  } ,0,0,1,1,1,0,0,0,0,3,1,random_attribute_generator {  } ,15,0,0,random_attribute_generator { Upper =  { fix Integral 1 100 }  } ,0,0,1,0,1,Attributes { Flow = Attribute { max Continuous 0 } Upper = Attribute { fix Continuous 1 } Selected = Attribute { fix Continuous 0 } Edgepotential = Attribute { min Continuous 0 } } ,Attributes { Nodepotential = Attribute { min Continuous 0 } } ,random_attribute_generator { Upper =  { fix Integral 1 120 }  } ,random_attribute_generator {  } ,random_attribute_generator { Upper =  { fix Integral 1 100 }  } ,random_attribute_generator {  } ,3,1,network_connectors,820,116,14.1379,250,0.304878,3,1,2.86697,0.5,0,375,21,273.5,273.5,0,7.5,0.584418,0.5,0,140,16,273.5,273.5,0,13
0.3,140,0,raster_pos:share-of-critical=0.3_connector-capacity=140,instance.test_data,0,0,0,0,40,1,random_attribute_generator {  } ,250,0,0,random_attribute_generator { Upper =  { fix Integral 1 100 }  } ,0,0,1,1,1,0,0,0,0,3,1,random_attribute_generator {  } ,15,0,0,random_attribute_generator { Upper =  { fix Integral 1 100 }  } ,0,0,1,0,1,Attributes { Flow = Attribute { max Continuous 0 } Upper = Attribute { fix Continuous 1 } Selected = Attribute { fix Continuous 0 } Edgepotential = Attribute { min Continuous 0 } } ,Attributes { Nodepotential = Attribute { min Continuous 0 } } ,random_attribute_generator { Upper =  { fix Integral 1 140 }  } ,random_attribute_generator {  } ,random_attribute_generator { Upper =  { fix Integral 1 100 }  } ,random_attribute_generator {  } ,3,1,network_connectors,820,116,14.1379,250,0.304878,3,3,3.10074,0.5,0,503,20,288,288,0,9.5,0.984627,0.5,0,351,14.5,288,288,0,14.5
0.3,160,0,raster_pos:share-of-critical=0.3_connector-capacity=160,instance.test_data,0,0,0,0,40,1,random_attribute_generator {  } ,250,0,0,random_attribute_generator { Upper =  { fix Integral 1 100 }  } ,0,0,1,1,1,0,0,0,0,3,1,random_attribute_generator {  } ,15,0,0,random_attribute_generator { Upper =  { fix Integral 1 100 }  } ,0,0,1,0,1,Attributes { Flow = Attribute { max Continuous 0 } Upper = Attribute { fix Continuous 1 } Selected = Attribute { fix Continuous 0 } Edgepotential = Attribute { min Continuous 0 } } ,Attributes { Nodepotential = Attribute { min Continuous 0 } } ,random_attribute_generator { Upper =  { fix Integral 1 160 }  } ,random_attribute_generator {  } ,random_attribute_generator { Upper =  { fix Integral 1 100 }  } ,random_attribute_generator {  } ,3,1,network_connectors,820,116,14.1379,250,0.304878,3,1,4.68768,0.5,0,604,21,315,315,0,8,1.42025,0.5,0,529,22,315,315,0,16
0.3,180,0,raster_pos:share-of-critical=0.3_connector-capacity=180,instance.test_data,0,0,0,0,40,1,random_attribute_generator {  } ,250,0,0,random_attribute_generator { Upper =  { fix Integral 1 100 }  } ,0,0,1,1,1,0,0,0,0,3,1,random_attribute_generator {  } ,15,0,0,random_attribute_generator { Upper =  { fix Integral 1 100 }  } ,0,0,1,0,1,Attributes { Flow = Attribute { max Continuous 0 } Upper = Attribute { fix Continuous 1 } Selected = Attribute { fix Continuous 0 } Edgepotential = Attribute { min Continuous 0 } } ,Attributes { Nodepotential = Attribute { min Continuous 0 } } ,random_attribute_generator { Upper =  { fix Integral 1 180 }  } ,random_attribute_generator {  } ,random_attribute_generator { Upper =  { fix Integral 1 100 }  } ,random_attribute_generator {  } ,3,1,network_connectors,820,116,14.1379,250,0.304878,3,1,2.43888,0.5,0,276,20,300,300,0,7,1.10189,0.5,0,294,14,300,300,0,14.5
0.3,200,0,raster_pos:share-of-critical=0.3_connector-capacity=200,instance.test_data,0,0,0,0,40,1,random_attribute_generator {  } ,250,0,0,random_attribute_generator { Upper =  { fix Integral 1 100 }  } ,0,0,1,1,1,0,0,0,0,3,1,random_attribute_generator {  } ,15,0,0,random_attribute_generator { Upper =  { fix Integral 1 100 }  } ,0,0,1,0,1,Attributes { Flow = Attribute { max Continuous 0 } Upper = Attribute { fix Continuous 1 } Selected = Attribute { fix Continuous 0 } Edgepotential = Attribute { min Continuous 0 } } ,Attributes { Nodepotential = Attribute { min Continuous 0 } } ,random_attribute_generator { Upper =  { fix Integral 1 200 }  } ,random_attribute_generator {  } ,random_attribute_generator { Upper =  { fix Integral 1 100 }  } ,random_attribute_generator {  } ,3,1,network_connectors,820,116,14.1379,250,0.304878,3,1,3.04654,0.5,0,392,18.5,262,262,0,7.5,0.982377,0.5,0,250,16,262,262,0,15.5
0.4,20,0,raster_pos:share-of-critical=0.4_connector-capacity=20,instance.test_data,0,0,0,0,40,1,random_attribute_generator {  } ,250,0,0,random_attribute_generator { Upper =  { fix Integral 1 100 }  } ,0,0,1,1,1,0,0,0,0,3,1,random_attribute_generator {  } ,10,0,0,random_attribute_generator { Upper =  { fix Integral 1 100 }  } ,0,0,1,0,1,Attributes { Flow = Attribute { max Continuous 0 } Upper = Attribute { fix Continuous 1 } Selected = Attribute { fix Continuous 0 } Edgepotential = Attribute { min Continuous 0 } } ,Attributes { Nodepotential = Attribute { min Continuous 0 } } ,random_attribute_generator { Upper =  { fix Integral 1 20 }  } ,random_attribute_generator {  } ,random_attribute_generator { Upper =  { fix Integral 1 100 }  } ,random_attribute_generator {  } ,3,1,network_connectors,630,116,10.8621,250,0.396825,3,3,2.77602,0.5,0,478,24.5,288,288,0,8.5,0.648008,0.5,0,221,17,288,288,0,14.5
0.4,40,0,raster_pos:share-of-critical=0.4_connector-capacity=40,instance.test_data,0,0,0,0,40,1,random_attribute_generator {  } ,250,0,0,random_attribute_generator { Upper =  { fix Integral 1 100 }  } ,0,0,1,1,1,0,0,0,0,3,1,random_attribute_generator {  } ,10,0,0,random_attribute_generator { Upper =  { fix Integral 1 100 }  } ,0,0,1,0,1,Attributes { Flow = Attribute { max Continuous 0 } Upper = Attribute { fix Continuous 1 } Selected = Attribute { fix Continuous 0 } Edgepotential = Attribute { min Continuous 0 } } ,Attributes { Nodepotential = Attribute { min Continuous 0 } } ,random_attribute_generator { Upper =  { fix Integral 1 40 }  } ,random_attribute_generator {  } ,random_attribute_generator { Upper =  { fix Integral 1 100 }  } ,random_attribute_generator {  } ,3,1,network_connectors,630,116,10.8621,250,0.396825,3,3,2.37677,0.5,0,395,18,272,272,0,8,0.62022,0.5,0,180,12,272,272,0,12
0.4,60,0,raster_pos:share-of-critical=0.4_connector-capacity=60,instance.test_data,0,0,0,0,40,1,random_attribute_generator {  } ,250,0,0,random_attribute_generator { Upper =  { fix Integral 1 100 }  } ,0,0,1,1,1,0,0,0,0,3,1,random_attribute_generator {  } ,10,0,0,random_attribute_generator { Upper =  { fix Integral 1 100 }  } ,0,0,1,0,1,Attributes { Flow = Attribute { max Continuous 0 } Upper = Attribute { fix Continuous 1 } Selected = Attribute { fix Continuous 0 } Edgepotential = Attribute { min Continuous 0 } } ,Attributes { Nodepotential = Attribute { min Continuous 0 } } ,random_attribute_generator { Upper =  { fix Integral 1 60 }  } ,random_attribute_generator {  } ,random_attribute_generator { Upper =  { fix Integral 1 100 }  } ,random_attribute_generator {  } ,3,1,network_connectors,630,116,10.8621,250,0.396825,3,3,4.85396,0.5,0,656,24,315.5,315.5,0,6.5,1.84932,0.5,0,573,17,315.5,315.5,0,15.5
0.4,80,0,raster_pos:share-of-critical=0.4_connector-capacity=80,instance.test_data,0,0,0,0,40,1,random_attribute_generator {  } ,250,0,0,random_attribute_generator { Upper =  { fix Integral 1 100 }  } ,0,0,1,1,1,0,0,0,0,3,1,random_attribute_generator {  } ,10,0,0,random_attribute_generator { Upper =  { fix Integral 1 100 }  } ,0,0,1,0,1,Attributes { Flow = Attribute { max Continuous 0 } Upper = Attribute { fix Continuous 1 } Selected = Attribute { fix Continuous 0 } Edgepotential = Attribute { min Continuous 0 } } ,Attributes { Nodepotential = Attribute { min Continuous 0 } } ,random_attribute_generator { Upper =  { fix Integral 1 80 }  } ,random_attribute_generator {  } ,random_attribute_generator { Upper =  { fix Integral 1 100 }  } ,random_attribute_generator {  } ,3,1,network_connectors,630,116,10.8621,250,0.396825,3,3,2.14351,0.5,0,298,20.5,277,277,0,7.5,0.699616,0.5,0,202,18,277,277,0,11
0.4,100,0,raster_pos:share-of-critical=0.4_connector-capacity=100,instance.test_data,0,0,0,0,40,1,random_attribute_generator {  } ,250,0,0,random_attribute_generator { Upper =  { fix Integral 1 100 }  } ,0,0,1,1,1,0,0,0,0,3,1,random_attribute_generator {  } ,10,0,0,random_attribute_generator { Upper =  { fix Integral 1 100 }  } ,0,0,1,0,1,Attributes { Flow = Attribute { max Continuous 0 } Upper = Attribute { fix Continuous 1 } Selected = Attribute { fix Continuous 0 } Edgepotential = Attribute { min Continuous 0 } } ,Attributes { Nodepotential = Attribute { min Continuous 0 } } ,random_attribute_generator { Upper =  { fix Integral 1 100 }  } ,random_attribute_generator {  } ,random_attribute_generator { Upper =  { fix Integral 1 100 }  } ,random_attribute_generator {  } ,3,1,network_connectors,630,116,10.8621,250,0.396825,3,1,3.03136,0.5,0,507,20,263,263,0,8,0.931141,0.5,0,354,19,263,263,0,17
0.4,120,0,raster_pos:share-of-critical=0.4_connector-capacity=120,instance.test_data,0,0,0,0,40,1,random_attribute_generator {  } ,250,0,0,random_attribute_generator { Upper =  { fix Integral 1 100 }  } ,0,0,1,1,1,0,0,0,0,3,1,random_attribute_generator {  } ,10,0,0,random_attribute_generator { Upper =  { fix Integral 1 100 }  } ,0,0,1,0,1,Attributes { Flow = Attribute { max Continuous 0 } Upper = Attribute { fix Continuous 1 } Selected = Attribute { fix Continuous 0 } Edgepotential = Attribute { min Continuous 0 } } ,Attributes { Nodepotential = Attribute { min Continuous 0 } } ,random_attribute_generator { Upper =  { fix Integral 1 120 }  } ,random_attribute_generator {  } ,random_attribute_generator { Upper =  { fix Integral 1 100 }  } ,random_attribute_generator {  } ,3,1,network_connectors,630,116,10.8621,250,0.396825,3,3,2.57144,0.5,0,381,21,282,282,0,8.5,0.56966,0.5,0,138,15,282,282,0,12
0.4,140,0,raster_pos:share-of-critical=0.4_connector-capacity=140,instance.test_data,0,0,0,0,40,1,random_attribute_generator {  } ,250,0,0,random_attribute_generator { Upper =  { fix Integral 1 100 }  } ,0,0,1,1,1,0,0,0,0,3,1,random_attribute_generator {  } ,10,0,0,random_attribute_generator { Upper =  { fix Integral 1 100 }  } ,0,0,1,0,1,Attributes { Flow = Attribute { max Continuous 0 } Upper = Attribute { fix Continuous 1 } Selected = Attribute { fix Continuous 0 } Edgepotential = Attribute { min Continuous 0 } } ,Attributes { Nodepotential = Attribute { min Continuous 0 } } ,random_attribute_generator { Upper =  { fix Integral 1 140 }  } ,random_attribute_generator {  } ,random_attribute_generator { Upper =  { fix Integral 1 100 }  } ,random_attribute_generator {  } ,3,1,network_connectors,630,116,10.8621,250,0.396825,3,3,4.40676,0.5,0,906.5,23.5,285.5,285.5,0,8,1.20453,0.5,0,469,17,285.5,285.5,0,15
0.4,160,0,raster_pos:share-of-critical=0.4_connector-capacity=160,instance.test_data,0,0,0,0,40,1,random_attribute_generator {  } ,250,0,0,random_attribute_generator { Upper =  { fix Integral 1 100 }  } ,0,0,1,1,1,0,0,0,0,3,1,random_attribute_generator {  } ,10,0,0,random_attribute_generator { Upper =  { fix Integral 1 100 }  } ,0,0,1,0,1,Attributes { Flow = Attribute { max Continuous 0 } Upper = Attribute { fix Continuous 1 } Selected = Attribute { fix Continuous 0 } Edgepotential = Attribute { min Continuous 0 } } ,Attributes { Nodepotential = Attribute { min Continuous 0 } } ,random_attribute_generator { Upper =  { fix Integral 1 160 }  } ,random_attribute_generator {  } ,random_attribute_generator { Upper =  { fix Integral 1 100 }  } ,random_attribute_generator {  } ,3,1,network_connectors,630,116,10.8621,250,0.396825,3,1,1.92162,0.5,0,265,16.5,228.5,228.5,0,6,0.615874,0.5,0,175,12.5,228.5,228.5,0,10.5
0.4,180,0,raster_pos:share-of-critical=0.4_connector-capacity=180,instance.test_data,0,0,0,0,40,1,random_attribute_generator {  } ,250,0,0,random_attribute_generator { Upper =  { fix Integral 1 100 }  } ,0,0,1,1,1,0,0,0,0,3,1,random_attribute_generator {  } ,10,0,0,random_attribute_generator { Upper =  { fix Integral 1 100 }  } ,0,0,1,0,1,Attributes { Flow = Attribute { max Continuous 0 } Upper = Attribute { fix Continuous 1 } Selected = Attribute { fix Continuous 0 } Edgepotential = Attribute { min Continuous 0 } } ,Attributes { Nodepotential = Attribute { min Continuous 0 } } ,random_attribute_generator { Upper =  { fix Integral 1 180 }  } ,random_attribute_generator {  } ,random_attribute_generator { Upper =  { fix Integral 1 100 }  } ,random_attribute_generator {  } ,3,1,network_connectors,630,116,10.8621,250,0.396825,3,3,1.87244,0.5,0,288,18.5,271,271,0,7,0.461419,0.5,0,122,16,271,271,0,11
0.4,200,0,raster_pos:share-of-critical=0.4_connector-capacity=200,instance.test_data,0,0,0,0,40,1,random_attribute_generator {  } ,250,0,0,random_attribute_generator { Upper =  { fix Integral 1 100 }  } ,0,0,1,1,1,0,0,0,0,3,1,random_attribute_generator {  } ,10,0,0,random_attribute_generator { Upper =  { fix Integral 1 100 }  } ,0,0,1,0,1,Attributes { Flow = Attribute { max Continuous 0 } Upper = Attribute { fix Continuous 1 } Selected = Attribute { fix Continuous 0 } Edgepotential = Attribute { min Continuous 0 } } ,Attributes { Nodepotential = Attribute { min Continuous 0 } } ,random_attribute_generator { Upper =  { fix Integral 1 200 }  } ,random_attribute_generator {  } ,random_attribute_generator { Upper =  { fix Integral 1 100 }  } ,random_attribute_generator {  } ,3,1,network_connectors,630,116,10.8621,250,0.396825,3,1,3.39518,0.5,0,516,19,273,273,0,7.5,1.19926,0.5,0,315,14,273,273,0,12
0.5,20,0,raster_pos:share-of-critical=0.5_connector-capacity=20,instance.test_data,0,0,0,0,40,1,random_attribute_generator {  } ,250,0,0,random_attribute_generator { Upper =  { fix Integral 1 100 }  } ,0,0,1,1,1,0,0,0,0,2,1,random_attribute_generator {  } ,7,0,0,random_attribute_generator { Upper =  { fix Integral 1 100 }  } ,0,0,1,0,1,Attributes { Flow = Attribute { max Continuous 0 } Upper = Attribute { fix Continuous 1 } Selected = Attribute { fix Continuous 0 } Edgepotential = Attribute { min Continuous 0 } } ,Attributes { Nodepotential = Attribute { min Continuous 0 } } ,random_attribute_generator { Upper =  { fix Integral 1 20 }  } ,random_attribute_generator {  } ,random_attribute_generator { Upper =  { fix Integral 1 100 }  } ,random_attribute_generator {  } ,3,1,network_connectors,516,78,13.2308,250,0.484496,3,3,3.53591,0.5,0,810.5,22.5,296,296,0,8.5,0.955382,0.5,0,342,20,296,296,0,17
0.5,40,0,raster_pos:share-of-critical=0.5_connector-capacity=40,instance.test_data,0,0,0,0,40,1,random_attribute_generator {  } ,250,0,0,random_attribute_generator { Upper =  { fix Integral 1 100 }  } ,0,0,1,1,1,0,0,0,0,2,1,random_attribute_generator {  } ,7,0,0,random_attribute_generator { Upper =  { fix Integral 1 100 }  } ,0,0,1,0,1,Attributes { Flow = Attribute { max Continuous 0 } Upper = Attribute { fix Continuous 1 } Selected = Attribute { fix Continuous 0 } Edgepotential = Attribute { min Continuous 0 } } ,Attributes { Nodepotential = Attribute { min Continuous 0 } } ,random_attribute_generator { Upper =  { fix Integral 1 40 }  } ,random_attribute_generator {  } ,random_attribute_generator { Upper =  { fix Integral 1 100 }  } ,random_attribute_generator {  } ,3,1,network_connectors,516,78,13.2308,250,0.484496,3,1,2.30478,0.5,0,351,16.5,267,267,0,6.5,0.417848,0.5,0,88.5,10.5,267,267,0,12
0.5,60,0,raster_pos:share-of-critical=0.5_connector-capacity=60,instance.test_data,0,0,0,0,40,1,random_attribute_generator {  } ,250,0,0,random_attribute_generator { Upper =  { fix Integral 1 100 }  } ,0,0,1,1,1,0,0,0,0,2,1,random_attribute_generator {  } ,7,0,0,random_attribute_generator { Upper =  { fix Integral 1 100 }  } ,0,0,1,0,1,Attributes { Flow = Attribute { max Continuous 0 } Upper = Attribute { fix Continuous 1 } Selected = Attribute { fix Continuous 0 } Edgepotential = Attribute { min Continuous 0 } } ,Attributes { Nodepotential = Attribute { min Continuous 0 } } ,random_attribute_generator { Upper =  { fix Integral 1 60 }  } ,random_attribute_generator {  } ,random_attribute_generator { Upper =  { fix Integral 1 100 }  } ,random_attribute_generator {  } ,3,1,network_connectors,516,78,13.2308,250,0.484496,3,1,3.20995,0.5,0,436,22,318.5,318.5,0,6.5,0.788726,0.5,0,310,16,318.5,318.5,0,14
0.5,80,0,raster_pos:share-of-critical=0.5_connector-capacity=80,instance.test_data,0,0,0,0,40,1,random_attribute_generator {  } ,250,0,0,random_attribute_generator { Upper =  { fix Integral 1 100 }  } ,0,0,1,1,1,0,0,0,0,2,1,random_attribute_generator {  } ,7,0,0,random_attribute_generator { Upper =  { fix Integral 1 100 }  } ,0,0,1,0,1,Attributes { Flow = Attribute { max Continuous 0 } Upper = Attribute { fix Continuous 1 } Selected = Attribute { fix Continuous 0 } Edgepotential = Attribute { min Continuous 0 } } ,Attributes { Nodepotential = Attribute { min Continuous 0 } } ,random_attribute_generator { Upper =  { fix Integral 1 80 }  } ,random_attribute_generator {  } ,random_attribute_generator { Upper =  { fix Integral 1 100 }  } ,random_attribute_generator {  } ,3,1,network_connectors,516,78,13.2308,250,0.484496,3,3,2.04859,0.5,0,311,20,266,266,0,7,0.628014,0.5,0,188.5,14.5,266,266,0,12
0.5,100,0,raster_pos:share-of-critical=0.5_connector-capacity=100,instance.test_data,0,0,0,0,40,1,random_attribute_generator {  } ,250,0,0,random_attribute_generator { Upper =  { fix Integral 1 100 }  } ,0,0,1,1,1,0,0,0,0,2,1,random_attribute_generator {  } ,7,0,0,random_attribute_generator { Upper =  { fix Integral 1 100 }  } ,0,0,1,0,1,Attributes { Flow = Attribute { max Continuous 0 } Upper = Attribute { fix Continuous 1 } Selected = Attribute { fix Continuous 0 } Edgepotential = Attribute { min Continuous 0 } } ,Attributes { Nodepotential = Attribute { min Continuous 0 } } ,random_attribute_generator { Upper =  { fix Integral 1 100 }  } ,random_attribute_generator {  } ,random_attribute_generator { Upper =  { fix Integral 1 100 }  } ,random_attribute_generator {  } ,3,1,network_connectors,516,78,13.2308,250,0.484496,3,3,3.57375,0.5,0,544,21,274.5,274.5,0,8,0.782433,0.5,0,289,18.5,274.5,274.5,0,13
0.5,120,0,raster_pos:share-of-critical=0.5_connector-capacity=120,instance.test_data,0,0,0,0,40,1,random_attribute_generator {  } ,250,0,0,random_attribute_generator { Upper =  { fix Integral 1 100 }  } ,0,0,1,1,1,0,0,0,0,2,1,random_attribute_generator {  } ,7,0,0,random_attribute_generator { Upper =  { fix Integral 1 100 }  } ,0,0,1,0,1,Attributes { Flow = Attribute { max Continuous 0 } Upper = Attribute { fix Continuous 1 } Selected = Attribute { fix Continuous 0 } Edgepotential = Attribute { min Continuous 0 } } ,Attributes { Nodepotential = Attribute { min Continuous 0 } } ,random_attribute_generator { Upper =  { fix Integral 1 120 }  } ,random_attribute_generator {  } ,random_attribute_generator { Upper =  { fix Integral 1 100 }  } ,random_attribute_generator {  } ,3,1,network_connectors,516,78,13.2308,250,0.484496,3,3,1.20987,0.5,0,210,14.5,245,245,0,7,0.42003,0.5,0,97,14,245,245,0,12
0.5,140,0,raster_pos:share-of-critical=0.5_connector-capacity=140,instance.test_data,0,0,0,0,40,1,random_attribute_generator {  } ,250,0,0,random_attribute_generator { Upper =  { fix Integral 1 100 }  } ,0,0,1,1,1,0,0,0,0,2,1,random_attribute_generator {  } ,7,0,0,random_attribute_generator { Upper =  { fix Integral 1 100 }  } ,0,0,1,0,1,Attributes { Flow = Attribute { max Continuous 0 } Upper = Attribute { fix Continuous 1 } Selected = Attribute { fix Continuous 0 } Edgepotential = Attribute { min Continuous 0 } } ,Attributes { Nodepotential = Attribute { min Continuous 0 } } ,random_attribute_generator { Upper =  { fix Integral 1 140 }  } ,random_attribute_generator {  } ,random_attribute_generator { Upper =  { fix Integral 1 100 }  } ,random_attribute_generator {  } ,3,1,network_connectors,516,78,13.2308,250,0.484496,3,3,1.77489,0.5,0,279,15.5,272,272,0,6.5,0.731958,0.5,0,190,15,272,272,0,13
0.5,160,0,raster_pos:share-of-critical=0.5_connector-capacity=160,instance.test_data,0,0,0,0,40,1,random_attribute_generator {  } ,250,0,0,random_attribute_generator { Upper =  { fix Integral 1 100 }  } ,0,0,1,1,1,0,0,0,0,2,1,random_attribute_generator {  } ,7,0,0,random_attribute_generator { Upper =  { fix Integral 1 100 }  } ,0,0,1,0,1,Attributes { Flow = Attribute { max Continuous 0 } Upper = Attribute { fix Continuous 1 } Selected = Attribute { fix Continuous 0 } Edgepotential = Attribute { min Continuous 0 } } ,Attributes { Nodepotential = Attribute { min Continuous 0 } } ,random_attribute_generator { Upper =  { fix Integral 1 160 }  } ,random_attribute_generator {  } ,random_attribute_generator { Upper =  { fix Integral 1 100 }  } ,random_attribute_generator {  } ,3,1,network_connectors,516,78,13.2308,250,0.484496,3,3,3.19563,0.5,0,1109,22,272,272,0,9,0.877322,0.5,0,373,17,272,272,0,11.5
0.5,180,0,raster_pos:share-of-critical=0.5_connector-capacity=180,instance.test_data,0,0,0,0,40,1,random_attribute_generator {  } ,250,0,0,random_attribute_generator { Upper =  { fix Integral 1 100 }  } ,0,0,1,1,1,0,0,0,0,2,1,random_attribute_generator {  } ,7,0,0,random_attribute_generator { Upper =  { fix Integral 1 100 }  } ,0,0,1,0,1,Attributes { Flow = Attribute { max Continuous 0 } Upper = Attribute { fix Continuous 1 } Selected = Attribute { fix Continuous 0 } Edgepotential = Attribute { min Continuous 0 } } ,Attributes { Nodepotential = Attribute { min Continuous 0 } } ,random_attribute_generator { Upper =  { fix Integral 1 180 }  } ,random_attribute_generator {  } ,random_attribute_generator { Upper =  { fix Integral 1 100 }  } ,random_attribute_generator {  } ,3,1,network_connectors,516,78,13.2308,250,0.484496,3,1,3.09409,0.5,0,474,19.5,272,272,0,8,0.964994,0.5,0,293,21,272,272,0,14
0.5,200,0,raster_pos:share-of-critical=0.5_connector-capacity=200,instance.test_data,0,0,0,0,40,1,random_attribute_generator {  } ,250,0,0,random_attribute_generator { Upper =  { fix Integral 1 100 }  } ,0,0,1,1,1,0,0,0,0,2,1,random_attribute_generator {  } ,7,0,0,random_attribute_generator { Upper =  { fix Integral 1 100 }  } ,0,0,1,0,1,Attributes { Flow = Attribute { max Continuous 0 } Upper = Attribute { fix Continuous 1 } Selected = Attribute { fix Continuous 0 } Edgepotential = Attribute { min Continuous 0 } } ,Attributes { Nodepotential = Attribute { min Continuous 0 } } ,random_attribute_generator { Upper =  { fix Integral 1 200 }  } ,random_attribute_generator {  } ,random_attribute_generator { Upper =  { fix Integral 1 100 }  } ,random_attribute_generator {  } ,3,1,network_connectors,516,78,13.2308,250,0.484496,3,3,1.54253,0.5,0,280,18.5,230.5,230.5,0,7.5,0.367179,0.5,0,114,12.5,230.5,230.5,0,13
