share-of-critical,dummy,marked_for_inspection,path,name,structure_graph_tip,structure_graph_shelter_orphans,structure_graph_only_tip_fringes,structure_graph_only_tip_extreme_layer,structure_graph_number_of_nodes,structure_graph_number_of_steps,structure_graph_random_attribute_generator,structure_graph_number_of_edges,structure_graph_fuzzing_distance_from,structure_graph_fuzzing_distance_to,structure_graph_random_attribute_generator,structure_graph_at_least_strongly_connected,structure_graph_at_least_weakly_connected,structure_graph_acyclic,structure_graph_simple,structure_graph_anti_reflexive,cluster_tip,cluster_shelter_orphans,cluster_only_tip_fringes,cluster_only_tip_extreme_layer,cluster_number_of_nodes,cluster_number_of_steps,cluster_random_attribute_generator,cluster_number_of_edges,cluster_fuzzing_distance_from,cluster_fuzzing_distance_to,cluster_random_attribute_generator,cluster_at_least_strongly_connected,cluster_at_least_weakly_connected,cluster_acyclic,cluster_simple,cluster_anti_reflexive,default_edge_attributes,default_node_attributes,structure_graph_edge_tipping_random_attribute_generator,structure_graph_node_tipping_random_attribute_generator,cluster_edge_tipping_random_attribute_generator,cluster_node_tipping_random_attribute_generator,number_of_epochs,share_of_critical,critical_selection_policy,example_number_of_edges,example_number_of_nodes,example_avg_incid_per_node,example_number_of_critical_edges,example_share_of_critical,example_number_of_epochs,example_path_length_lower_bound,maintenance_problem_ip_time_in_sec,maintenance_problem_ip_number_of_bnb_runs,maintenance_problem_ip_number_of_reopt_runs,maintenance_problem_ip_number_of_nodes_explored,maintenance_problem_ip_max_depth,maintenance_problem_ip_dual_bound,maintenance_problem_ip_primal_bound,maintenance_problem_ip_gap,maintenance_problem_ip_number_of_primal_sols,maintenance_problem_benders_time_in_sec,maintenance_problem_benders_number_of_bnb_runs,maintenance_problem_benders_number_of_reopt_runs,maintenance_problem_benders_number_of_nodes_explored,maintenance_problem_benders_max_depth,maintenance_problem_benders_dual_bound,maintenance_problem_benders_primal_bound,maintenance_problem_benders_gap,maintenance_problem_benders_number_of_primal_sols
0.2,0,0,raster_pos:share-of-critical=0.2_dummy=0,instance.test_data,0,0,0,0,40,1,random_attribute_generator {  } ,250,0,0,random_attribute_generator { Upper =  { fix Integral 1 100 }  } ,0,0,1,1,1,1,1,1,0,1,1,random_attribute_generator {  } ,0,0,0,random_attribute_generator { Upper =  { fix Integral 1 100 }  } ,0,0,1,1,1,Attributes { Edgepotential = Attribute { min Continuous 0 } Selected = Attribute { fix Continuous 0 } Upper = Attribute { fix Continuous 1 } Flow = Attribute { max Continuous 0 } } ,Attributes { Nodepotential = Attribute { min Continuous 0 } } ,random_attribute_generator { Upper =  { fix Integral 1 100 }  } ,random_attribute_generator {  } ,random_attribute_generator { Upper =  { fix Integral 1 100 }  } ,random_attribute_generator {  } ,3,0.2,everywhere,250,40,12.5,50,0.2,3,1,0.227809,0.5,0,2.5,1,401,401,0,4.5,0.050914,0.5,0,2.5,1,401,401,0,2.5
0.3,0,0,raster_pos:share-of-critical=0.3_dummy=0,instance.test_data,0,0,0,0,40,1,random_attribute_generator {  } ,250,0,0,random_attribute_generator { Upper =  { fix Integral 1 100 }  } ,0,0,1,1,1,1,1,1,0,1,1,random_attribute_generator {  } ,0,0,0,random_attribute_generator { Upper =  { fix Integral 1 100 }  } ,0,0,1,1,1,Attributes { Edgepotential = Attribute { min Continuous 0 } Selected = Attribute { fix Continuous 0 } Upper = Attribute { fix Continuous 1 } Flow = Attribute { max Continuous 0 } } ,Attributes { Nodepotential = Attribute { min Continuous 0 } } ,random_attribute_generator { Upper =  { fix Integral 1 100 }  } ,random_attribute_generator {  } ,random_attribute_generator { Upper =  { fix Integral 1 100 }  } ,random_attribute_generator {  } ,3,0.3,everywhere,250,40,12.5,75,0.3,3,1,0.377609,0.5,0,7,3,348.5,348.5,0,4.5,0.063901,0.5,0,8,3,348.5,348.5,0,5
0.4,0,0,raster_pos:share-of-critical=0.4_dummy=0,instance.test_data,0,0,0,0,40,1,random_attribute_generator {  } ,250,0,0,random_attribute_generator { Upper =  { fix Integral 1 100 }  } ,0,0,1,1,1,1,1,1,0,1,1,random_attribute_generator {  } ,0,0,0,random_attribute_generator { Upper =  { fix Integral 1 100 }  } ,0,0,1,1,1,Attributes { Edgepotential = Attribute { min Continuous 0 } Selected = Attribute { fix Continuous 0 } Upper = Attribute { fix Continuous 1 } Flow = Attribute { max Continuous 0 } } ,Attributes { Nodepotential = Attribute { min Continuous 0 } } ,random_attribute_generator { Upper =  { fix Integral 1 100 }  } ,random_attribute_generator {  } ,random_attribute_generator { Upper =  { fix Integral 1 100 }  } ,random_attribute_generator {  } ,3,0.4,everywhere,250,40,12.5,100,0.4,3,2,0.308046,0.5,0,19.5,6,279,279,0,3.5,0.059936,0.5,0,12,4,279,279,0,4.5
0.5,0,0,raster_pos:share-of-critical=0.5_dummy=0,instance.test_data,0,0,0,0,40,1,random_attribute_generator {  } ,250,0,0,random_attribute_generator { Upper =  { fix Integral 1 100 }  } ,0,0,1,1,1,1,1,1,0,1,1,random_attribute_generator {  } ,0,0,0,random_attribute_generator { Upper =  { fix Integral 1 100 }  } ,0,0,1,1,1,Attributes { Edgepotential = Attribute { min Continuous 0 } Selected = Attribute { fix Continuous 0 } Upper = Attribute { fix Continuous 1 } Flow = Attribute { max Continuous 0 } } ,Attributes { Nodepotential = Attribute { min Continuous 0 } } ,random_attribute_generator { Upper =  { fix Integral 1 100 }  } ,random_attribute_generator {  } ,random_attribute_generator { Upper =  { fix Integral 1 100 }  } ,random_attribute_generator {  } ,3,0.5,everywhere,250,40,12.5,125,0.5,3,2,0.634959,0.5,0,74,10.5,303,303,0,4,0.087625,0.5,0,17.5,6,303,303,0,5.5
0.6,0,0,raster_pos:share-of-critical=0.6_dummy=0,instance.test_data,0,0,0,0,40,1,random_attribute_generator {  } ,250,0,0,random_attribute_generator { Upper =  { fix Integral 1 100 }  } ,0,0,1,1,1,1,1,1,0,1,1,random_attribute_generator {  } ,0,0,0,random_attribute_generator { Upper =  { fix Integral 1 100 }  } ,0,0,1,1,1,Attributes { Edgepotential = Attribute { min Continuous 0 } Selected = Attribute { fix Continuous 0 } Upper = Attribute { fix Continuous 1 } Flow = Attribute { max Continuous 0 } } ,Attributes { Nodepotential = Attribute { min Continuous 0 } } ,random_attribute_generator { Upper =  { fix Integral 1 100 }  } ,random_attribute_generator {  } ,random_attribute_generator { Upper =  { fix Integral 1 100 }  } ,random_attribute_generator {  } ,3,0.6,everywhere,250,40,12.5,150,0.6,3,2,0.538506,0.5,0,45,12.5,325,325,0,6,0.128601,0.5,0,36,7.5,325,325,0,7.5
0.7,0,0,raster_pos:share-of-critical=0.7_dummy=0,instance.test_data,0,0,0,0,40,1,random_attribute_generator {  } ,250,0,0,random_attribute_generator { Upper =  { fix Integral 1 100 }  } ,0,0,1,1,1,1,1,1,0,1,1,random_attribute_generator {  } ,0,0,0,random_attribute_generator { Upper =  { fix Integral 1 100 }  } ,0,0,1,1,1,Attributes { Edgepotential = Attribute { min Continuous 0 } Selected = Attribute { fix Continuous 0 } Upper = Attribute { fix Continuous 1 } Flow = Attribute { max Continuous 0 } } ,Attributes { Nodepotential = Attribute { min Continuous 0 } } ,random_attribute_generator { Upper =  { fix Integral 1 100 }  } ,random_attribute_generator {  } ,random_attribute_generator { Upper =  { fix Integral 1 100 }  } ,random_attribute_generator {  } ,3,0.7,everywhere,250,40,12.5,175,0.7,3,2,0.891161,0.5,0,145,16,324,324,0,6,0.12851,0.5,0,39,7.5,324,324,0,8
0.8,0,0,raster_pos:share-of-critical=0.8_dummy=0,instance.test_data,0,0,0,0,40,1,random_attribute_generator {  } ,250,0,0,random_attribute_generator { Upper =  { fix Integral 1 100 }  } ,0,0,1,1,1,1,1,1,0,1,1,random_attribute_generator {  } ,0,0,0,random_attribute_generator { Upper =  { fix Integral 1 100 }  } ,0,0,1,1,1,Attributes { Edgepotential = Attribute { min Continuous 0 } Selected = Attribute { fix Continuous 0 } Upper = Attribute { fix Continuous 1 } Flow = Attribute { max Continuous 0 } } ,Attributes { Nodepotential = Attribute { min Continuous 0 } } ,random_attribute_generator { Upper =  { fix Integral 1 100 }  } ,random_attribute_generator {  } ,random_attribute_generator { Upper =  { fix Integral 1 100 }  } ,random_attribute_generator {  } ,3,0.8,everywhere,250,40,12.5,200,0.8,3,1,0.867176,0.5,0,145.5,13.5,279,279,0,6.5,0.214274,0.5,0,64,10.5,279,279,0,9
0.9,0,0,raster_pos:share-of-critical=0.9_dummy=0,instance.test_data,0,0,0,0,40,1,random_attribute_generator {  } ,250,0,0,random_attribute_generator { Upper =  { fix Integral 1 100 }  } ,0,0,1,1,1,1,1,1,0,1,1,random_attribute_generator {  } ,0,0,0,random_attribute_generator { Upper =  { fix Integral 1 100 }  } ,0,0,1,1,1,Attributes { Edgepotential = Attribute { min Continuous 0 } Selected = Attribute { fix Continuous 0 } Upper = Attribute { fix Continuous 1 } Flow = Attribute { max Continuous 0 } } ,Attributes { Nodepotential = Attribute { min Continuous 0 } } ,random_attribute_generator { Upper =  { fix Integral 1 100 }  } ,random_attribute_generator {  } ,random_attribute_generator { Upper =  { fix Integral 1 100 }  } ,random_attribute_generator {  } ,3,0.9,everywhere,250,40,12.5,225,0.9,3,2,1.03375,0.5,0,165.5,18,222,222,0,7,0.325653,0.5,0,84.5,12,222,222,0,10
1,0,0,raster_pos:share-of-critical=1_dummy=0,instance.test_data,0,0,0,0,40,1,random_attribute_generator {  } ,250,0,0,random_attribute_generator { Upper =  { fix Integral 1 100 }  } ,0,0,1,1,1,1,1,1,0,1,1,random_attribute_generator {  } ,0,0,0,random_attribute_generator { Upper =  { fix Integral 1 100 }  } ,0,0,1,1,1,Attributes { Edgepotential = Attribute { min Continuous 0 } Selected = Attribute { fix Continuous 0 } Upper = Attribute { fix Continuous 1 } Flow = Attribute { max Continuous 0 } } ,Attributes { Nodepotential = Attribute { min Continuous 0 } } ,random_attribute_generator { Upper =  { fix Integral 1 100 }  } ,random_attribute_generator {  } ,random_attribute_generator { Upper =  { fix Integral 1 100 }  } ,random_attribute_generator {  } ,3,1,everywhere,250,40,12.5,250,1,3,1,2.32291,0.5,0,397,21,276,276,0,8.5,0.455851,0.5,0,242,18,276,276,0,10.5
